Assignment 3
…
##                 Df  Sum Sq Mean Sq F value Pr(>F)    
## BLD              9   40387    4487    1279 <2e-16 ***
## Residuals   361894 1269594       4                   
## ---
## Signif. codes:  0 '***' 0.001 '**' 0.01 '*' 0.05 '.' 0.1 ' ' 1
## 16913 observations deleted due to missingness

Tukeys HSD test:

differences <- TukeyHSD(anova)

as_tibble(cbind(pair = row.names(differences$BLD),
                differences$BLD))

## # A tibble: 45 x 5
##    pair  diff              lwr               upr              `p adj`           
##    <chr> <chr>             <chr>             <chr>            <chr>             
##  1 02-01 0.529033411263163 0.472113481880742 0.5859533406455~ 0                 
##  2 03-01 0.212846136853592 0.146417639487315 0.2792746342198~ 9.9031893796564e-~
##  3 04-01 0.171021262746744 0.08290538480541~ 0.2591371406880~ 3.6982180873224e-~
##  4 05-01 0.03328320240988~ -0.0393144990313~ 0.1058809038511~ 0.91112475828771  
##  5 06-01 -0.0386302151194~ -0.1111429115767~ 0.0338824813378~ 0.804079322713    
##  6 07-01 -0.2088905550589~ -0.2852478282940~ -0.132533281823~ 8.40438829641244e~
##  7 08-01 -0.2944895977516~ -0.3710456255866~ -0.217933569916~ 0                 
##  8 09-01 -0.6645499297367~ -0.7366493715567~ -0.592450487916~ 0                 
##  9 10-01 -0.5353431269538~ -0.87539694406257 -0.195289309845~ 2.79003454661808e~
## 10 03-02 -0.3161872744095~ -0.3544449600924~ -0.277929588726~ 0                 
## # ... with 35 more rows
…
##                 Df    Sum Sq Mean Sq F value Pr(>F)    
## BLD              9   7980126  886681    1560 <2e-16 ***
## Residuals   354702 201593850     568                   
## ---
## Signif. codes:  0 '***' 0.001 '**' 0.01 '*' 0.05 '.' 0.1 ' ' 1
## 24105 observations deleted due to missingness

Tukeys HSD test:

differences <- TukeyHSD(anova)

as_tibble(cbind(pair = row.names(differences$BLD),
                differences$BLD))

## # A tibble: 45 x 5
##    pair  diff              lwr                upr               `p adj`         
##    <chr> <chr>             <chr>              <chr>             <chr>           
##  1 02-01 0.566525362426898 -0.170901411897052 1.30395213675085  0.30742490531589
##  2 03-01 5.68471496559764  4.8254500660396    6.54397986515568  0               
##  3 04-01 9.36004187171896  8.22017514317475   10.4999086002632  0               
##  4 05-01 11.499118745981   10.5609977840674   12.4372397078947  0               
##  5 06-01 11.4648529482716  10.5284088148093   12.4012970817339  0               
##  6 07-01 12.6067405168678  11.62072007956     13.5927609541756  0               
##  7 08-01 12.5230289433961  11.5320818767933   13.5139760099989  0               
##  8 09-01 12.626176338159   11.6928108058497   13.5595418704682  0               
##  9 10-01 -3.68111678633591 -8.22995306253752  0.867719489865701 0.2367937546793~
## 10 03-02 5.11818960317074  4.62577762745273   5.61060157888876  0               
## # ... with 35 more rows
…
